{
    "links": {
        "first": "https://unittest.localhost/workspace/orgs/00000000-0000-0000-0000-000000000000/workspaces/summary?limit=2&offset=0",
        "next": "https://unittest.localhost/workspace/orgs/00000000-0000-0000-0000-000000000000/workspaces/summary?limit=2&offset=2",
        "previous": null,
        "count": 2,
        "last": "https://unittest.localhost/workspace/orgs/00000000-0000-0000-0000-000000000000/workspaces/summary?limit=2&offset=2",
        "total": 3
    },
    "results": [
        {
            "id": "00000000-0000-0000-0000-00000000000a",
            "name": "Test Workspace A"
        },
        {
            "id": "00000000-0000-0000-0000-00000000000b",
            "name": "Test Workspace B"
        }
    ]
}
