{
    "count": 2,
    "files": [
        {
            "name": "x.csv",
            "path": "/A/",
            "file_id": "00000000-0000-0000-0000-000000000002",
            "version_id": "2",
            "created_at": "2020-01-01 01:30:00+00:00",
            "created_by": {
                "id": "00000000-0000-0000-0000-000000000010",
                "name": "x y",
                "email": "test@example.com"
            },
            "modified_at": "2020-01-01 01:30:00+00:00",
            "modified_by": {
                "id": "00000000-0000-0000-0000-000000000010",
                "name": "x y",
                "email": "test@example.com"
            },
            "etag": "",
            "links": {
                "self": "https://unittest.localhost/path/file/v2/orgs/00000000-0000-0000-0000-0000000004d2/workspaces/00000000-0000-0000-0000-00000000162e/files/path/A/m.json"
            },
            "size": 11
        },
        {
            "name": "y.csv",
            "path": "/A/",
            "file_id": "00000000-0000-0000-0000-000000000003",
            "version_id": "1",
            "created_at": "2020-01-02 01:30:00+00:00",
            "created_by": {
                "id": "00000000-0000-0000-0000-000000000011",
                "name": null,
                "email": null
            },
            "modified_at": "2020-01-02 01:30:00+00:00",
            "modified_by": {
                "id": "00000000-0000-0000-0000-000000000011",
                "name": null,
                "email": null
            },
            "etag": "",
            "links": {
                "self": "https://unittest.localhost/path/file/v2/orgs/00000000-0000-0000-0000-0000000004d2/workspaces/00000000-0000-0000-0000-00000000162e/files/path/A/n.json"
            },
            "size": 12
        }
    ],
    "limit": 5000,
    "links": {
        "next": "https://unittest.localhost/path/file/v2/orgs/00000000-0000-0000-0000-0000000004d2/workspaces/00000000-0000-0000-0000-00000000162e/files?path=pointset/&limit=2&offset=2",
        "prev": null,
        "self": ""
    },
    "offset": 0,
    "total": 3
}
