{
    "objects": [
        {
            "name": "m.json",
            "path": "/A/",
            "object_id": "00000000-0000-0000-0000-000000000002",
            "schema": "/objects/test/1.2.3/test.schema.json",
            "version_id": "2",
            "created_at": "2020-01-01 01:30:00+00:00",
            "created_by": {
                "id": "00000000-0000-0000-0000-000000000010",
                "name": "x y",
                "email": "test@example.com"
            },
            "modified_at": "2020-01-02 01:30:00+00:00",
            "modified_by": {
                "id": "00000000-0000-0000-0000-000000000010",
                "name": "x y",
                "email": "test@example.com"
            },
            "etag": "",
            "links": {
                "download": "https://unittest.localhost/path/geoscience-object/orgs/00000000-0000-0000-0000-0000000004d2/workspaces/00000000-0000-0000-0000-00000000162e/objects/path/A/m.json"
            },
            "stage": {
              "name": "Approved",
              "stage_id": "00000000-0000-0000-0000-000000000999"
            }
        },
        {
            "name": "n.json",
            "path": "/A/",
            "object_id": "00000000-0000-0000-0000-000000000003",
            "schema": "/objects/test/1.2.3/test.schema.json",
            "version_id": "1",
            "created_at": "2020-01-02 01:30:00+00:00",
            "created_by": {
                "id": "00000000-0000-0000-0000-000000000011",
                "name": null,
                "email": null
            },
            "modified_at": "2020-01-03 01:30:00+00:00",
            "modified_by": {
                "id": "00000000-0000-0000-0000-000000000011",
                "name": null,
                "email": null
            },
            "etag": "",
            "links": {
                "download": "https://unittest.localhost/path/geoscience-object/orgs/00000000-0000-0000-0000-0000000004d2/workspaces/00000000-0000-0000-0000-00000000162e/objects/path/A/n.json"
            }
        }
    ],
    "offset": 0,
    "limit": 2,
    "total": 3,
    "links": {
        "next": "https://unittest.localhost/path/geoscience-object/orgs/00000000-0000-0000-0000-0000000004d2/workspaces/00000000-0000-0000-0000-00000000162e/objects?path=pointset/&limit=2&continuation_token=a_continuation_token",
        "prev": null
    }
}
